[
  {
    "name": "theme_info",
    "theme_name": "Debut",
    "theme_author": "Shopify",
    "theme_version": "5.0.0",
    "theme_documentation_url": "https:\/\/help.shopify.com\/manual\/using-themes\/themes-by-shopify\/debut",
    "theme_support_url": "https:\/\/support.shopify.com\/"
  },
  {
    "name": "BlueskyTechCo Logo and Favicon",
    "settings": [
      {
        "type": "header",
        "content": "Logo Image"
      },
      {
        "type": "image_picker",
        "id": "main_logo"
      },
      {
        "type": "header",
        "content": "Favicon"
      },
      {
        "type": "image_picker",
        "id": "favicon",
        "label": "Favicon image"
      }
    ]
  },
  {
    "name": "BlueskyTechCo Color",
    "settings": [
      {
        "type": "header",
        "content": "Body Colors"
      },
      {
        "type": "color",
        "id": "body-colors",
        "label": "Body Color",
        "default": "#666"
      },
      {
        "type": "color",
        "id": "background-color",
        "label": "Background Color",
        "default": "rgb(255, 255, 255)"
      },
      {
        "type": "header",
        "content": "Colors"
      },
      {
        "type": "color",
        "id": "primary-color",
        "label": "Primary Color",
        "default": "#05A503"
      },
      {
        "type": "color",
        "id": "sale-color",
        "label": "Sale Label background color",
        "default": "#FA3535"
      },
      {
        "type": "color",
        "id": "rating-star-color",
        "label": "Rating Star Color",
        "default": "#FFBC53"
      },
      {
        "type": "color",
        "id": "product-price-color",
        "label": "Price color",
        "default": "#111111"
      },
      {
        "type": "color",
        "id": "greycolor",
        "label": "Grey color",
        "default": "#999"
      },
      {
        "type": "color",
        "id": "heading-color",
        "label": "Heading Color",
        "default": "#222222"
      },
      {
        "type": "header",
        "content": "Button"
      },
      {
        "type": "color",
        "id": "background-button-color",
        "label": "Background Color",
        "default": "#05A503"
      },
      {
        "type": "color",
        "id": "button-color",
        "label": "Button Color",
        "default": "#fff"
      },
      {
        "type": "color",
        "id": "button-border-color",
        "label": "Button Border Color",
        "default": "#05A503"
      },
      {
        "type": "color",
        "id": "background-hover-color",
        "label": "Background Hover Color",
        "default": "#fff"
      },
      {
        "type": "color",
        "id": "button-hover-color",
        "label": "Button Hover Color",
        "default": "#05A503"
      },
      {
        "type": "color",
        "id": "button-border-hover-color",
        "label": "Button Border Hover Color",
        "default": "#05A503"
      },
      {
        "type": "header",
        "content": "Menu"
      },
      {
        "type": "color",
        "id": "menu-color",
        "label": "Menu Color",
        "default": "#222222"
      },
      {
        "type": "color",
        "id": "submenu-color",
        "label": "Submenu Color",
        "default": "#666"
      },
      {
        "type": "color",
        "id": "submenu-background-color",
        "label": "Submenu background color",
        "default": "#fff"
      }
    ]
  },
  {
    "name": "BlueskyTechCo Font",
    "settings": [
      {
        "type": "header",
        "content": "Font Body"
      },
      {
        "type": "radio",
        "id": "fonts-style-body",
        "label": "Fonts Style",
        "options": [
          {
            "value": "font_google",
            "label": "Google Fonts"
          },
          {
            "value": "font_custom",
            "label": "Custom Fonts"
          }
        ]
      },
      {
        "type": "text",
        "id": "fontfamily-body",
        "label": "Fonts Name",
        "info": "[You can find Google Fonts](http:\/\/www.google.com\/fonts)",
        "default": "Cairo"
      },
      {
        "type": "text",
        "id": "font-weight-body",
        "label": "Font Weight",
        "default": "400"
      },
      {
        "type": "text",
        "id": "font-size-body",
        "label": "Fonts Size",
        "default": "14px"
      },
      {
        "type": "text",
        "id": "line-height-body",
        "label": "Line Height",
        "default": "24px"
      },
      {
        "type": "header",
        "content": "Font Heading"
      },
      {
        "type": "radio",
        "id": "fonts-style-heading",
        "label": "Fonts Style",
        "options": [
          {
            "value": "font_google",
            "label": "Google Fonts"
          },
          {
            "value": "font_custom",
            "label": "Custom Fonts"
          }
        ]
      },
      {
        "type": "text",
        "id": "fontfamily-heading",
        "label": "Fonts Name",
        "info": "[You can find Google Fonts](http:\/\/www.google.com\/fonts)",
        "default": "Cairo"
      },
      {
        "type": "text",
        "id": "font-weight-heading",
        "label": "Font Weight",
        "default": "500"
      },
      {
        "type": "header",
        "content": "Font Club Heading"
      },
      {
        "type": "radio",
        "id": "fonts-style-club-heading",
        "label": "Fonts Style",
        "options": [
          {
            "value": "font_google",
            "label": "Google Fonts"
          },
          {
            "value": "font_custom",
            "label": "Custom Fonts"
          }
        ]
      },
      {
        "type": "text",
        "id": "fontfamily-club-heading",
        "label": "Fonts Name",
        "info": "[You can find Google Fonts](http:\/\/www.google.com\/fonts)",
        "default": "Merriweather"
      },
      {
        "type": "text",
        "id": "font-weight-club-heading",
        "label": "Font Weight",
        "default": "900"
      },
      {
        "type": "header",
        "content": "Font Menu"
      },
      {
        "type": "radio",
        "id": "fonts-style-menu",
        "label": "Fonts Style",
        "options": [
          {
            "value": "font_google",
            "label": "Google Fonts"
          },
          {
            "value": "font_custom",
            "label": "Custom Fonts"
          }
        ]
      },
      {
        "type": "text",
        "id": "fontfamily-menu",
        "label": "Fonts Name",
        "info": "[You can find Google Fonts](http:\/\/www.google.com\/fonts)",
        "default": "Cairo"
      },
      {
        "type": "text",
        "id": "font-weight-menu",
        "label": "Font Weight",
        "default": "500"
      },
      {
        "type": "header",
        "content": "Other font"
      },
      {
        "type": "radio",
        "id": "fonts-style-other",
        "label": "Fonts Style",
        "options": [
          {
            "value": "font_google",
            "label": "Google Fonts"
          },
          {
            "value": "font_custom",
            "label": "Custom Fonts"
          }
        ]
      },
      {
        "type": "text",
        "id": "fontfamily-other",
        "label": "Fonts Name",
        "info": "[You can find Google Fonts](http:\/\/www.google.com\/fonts)",
        "default": "Playfair Display"
      }
    ]
  },
  {
    "name": "Popup Newsletter",
    "settings": [
      {
        "type": "checkbox",
        "id": "newsletter_enable",
        "label": "Enable Popup Newsletter"
      },
      {
        "type": "checkbox",
        "id": "newsletter_enable_mobile",
        "label": "Enable Popup Newsletter Mobile",
        "default": false
      },
      {
        "type": "text",
        "id": "newsletter_time",
        "placeholder": "Times",
        "label": "Times show again",
        "info": "The unit is minute. Ex: 10",
        "default": "60"
      },
      {
        "type": "text",
        "id": "pupupnewsletter_subtitile",
        "placeholder": "Sub title",
        "label": "Sub title"
      },
      {
        "type": "text",
        "id": "pupupnewsletter_titile",
        "placeholder": "Title",
        "label": "Title"
      },
      {
        "type": "textarea",
        "id": "pupupnewsletter_description",
        "label": "Description"
      },
      {
        "type": "text",
        "id": "newsletter_checkbox_text",
        "label": "Checkbox",
        "placeholder": "Checkbox text"
      },
      {
        "type": "header",
        "content": "Newsletter Banner"
      },
      {
        "type": "image_picker",
        "id": "newsletter-img",
        "label": "Popup background image",
        "info": "Size: 770x397 pixel"
      },
      {
        "type": "select",
        "id": "background_position_newsletter",
        "label": "Background Position",
        "default": "left center",
        "info": "Default Column: Left Center",
        "options": [
          {
            "value": "left top",
            "label": "Left Top"
          },
          {
            "value": "left center",
            "label": "Left Center"
          },
          {
            "value": "left bottom",
            "label": "Left Bottom"
          },
          {
            "value": "center top",
            "label": "Center Top"
          },
          {
            "value": "center center",
            "label": "Center Center"
          },
          {
            "value": "center bottom",
            "label": "Center Bottom"
          },
          {
            "value": "right top",
            "label": "Right Top"
          },
          {
            "value": "right center",
            "label": "Right Center"
          },
          {
            "value": "right bottom",
            "label": "Right Bottom"
          }
        ]
      }
    ]
  },
  {
    "name": "Header",
    "settings": [
      {
        "type": "header",
        "content": "Header setting"
      },
      {
        "type": "color",
        "id": "header-color",
        "label": "Header Color",
        "default": "#222222"
      },
      {
        "type": "image_picker",
        "id": "background_header",
        "label": "Background Image "
      },
      {
        "type": "color",
        "id": "header_backgrounds",
        "label": "Background Color",
        "default": "#ffffff"
      },
      {
        "type": "select",
        "id": "select_header",
        "label": "Select Header Layout",
        "options": [
          {
            "value": "bluesky-header-layout1",
            "label": "Header Layout 1"
          },
          {
            "value": "bluesky-header-layout2",
            "label": "Header Layout 2"
          },
          {
            "value": "bluesky-header-layout3",
            "label": "Header Layout 3"
          },
          {
            "value": "bluesky-header-layout4",
            "label": "Header Layout 4"
          },
          {
            "value": "bluesky-header-layout5",
            "label": "Header Layout 5"
          }
        ],
        "default": "bluesky-header-layout1"
      },
      {
        "type": "checkbox",
        "id": "absolute_header",
        "label": "Enable absolute header on homepage",
        "default": true
      },
      {
        "type": "header",
        "content": "Topbar"
      },
      {
        "type": "checkbox",
        "id": "topbar_enable",
        "label": "Enable Topbar"
      },
      {
        "type": "color",
        "id": "topbar-color",
        "label": "Topbar Color",
        "default": "#222222"
      },
      {
        "type": "text",
        "id": "email_address",
        "default": "Biolife@company.com",
        "label": "Email address"
      },
      {
        "type": "text",
        "id": "shipping_info",
        "default": "Free Shipping for all Order of $99",
        "label": "Shipping Infomation"
      },
      {
        "type": "color",
        "id": "topbar_background",
        "label": "Background Color",
        "default": "#fff"
      },
      {
        "type": "header",
        "content": "Horizontal menu"
      },
      {
        "type": "checkbox",
        "id": "menu_enable",
        "label": "Enable Horizontal menu"
      },
      {
        "type": "link_list",
        "id": "bst-menu_linklist",
        "label": "Menu",
        "default": "main-menu"
      },
      {
        "type": "header",
        "content": "Vertical Menu"
      },
      {
        "type": "checkbox",
        "id": "vertical_menu_enable",
        "label": "Enable Vertical Menu"
      },
      {
        "type": "text",
        "id": "bst-vertical_title_linklist",
        "label": "Title Vertical Menu"
      },
      {
        "type": "link_list",
        "id": "bst-vertical_linklist",
        "label": "Vertical Menu"
      },
      {
        "type": "text",
        "id": "vertical_show_item",
        "default": "8",
        "label": "Show Item"
      },
      {
        "type": "text",
        "id": "else_class",
        "label": "Add class"
      },
      {
        "type": "text",
        "id": "header_phone",
        "label": "Phone number",
        "default": "Mon-Fri: 8:30am-7:30pm; Sat-Sun: 9:30am-4:30pm"
      },
      {
        "type": "text",
        "id": "header_time_opening",
        "label": "Time opening",
        "default": "Mon-Fri: 8:30am-7:30pm; Sat-Sun: 9:30am-4:30pm"
      },
      {
        "type": "select",
        "id": "select_layout_homepage",
        "label": "Select Layout Home 1",
        "options": [
          {
            "value": "bluesky-layout-home1",
            "label": "Layout Home 1"
          },
          {
            "value": "bluesky-layout-home2",
            "label": "Layout Home 2"
          },
          {
            "value": "bluesky-layout-home4",
            "label": "Layout Home 4"
          }
        ],
        "default": "bluesky-layout-home1"
      },
      {
        "type": "checkbox",
        "id": "sticky_menu_enable",
        "label": "Enable Sticky Menu"
      }
    ]
  },
  {
    "name": {
      "en": "BlueskyTechCo Social media",
      "de": "BlueskyTechCo Social Media",
      "fr": "BlueskyTechCo Médias sociaux"
    },
    "settings": [
      {
        "type": "header",
        "content": {
          "en": "Social ",
          "de": "Social Media",
          "fr": "Médias sociaux"
        }
      },
      {
        "type": "text",
        "id": "social_twitter_link",
        "label": {
          "en": "Twitter",
          "de": "Twitter",
          "fr": "Twitter"
        }
      },
      {
        "type": "text",
        "id": "social_dribbble_link",
        "label": {
          "en": "Dribbble",
          "de": "Dribbble",
          "fr": "Dribbble"
        }
      },
      {
        "type": "text",
        "id": "social_facebook_link",
        "label": {
          "en": "Facebook",
          "de": "Facebook",
          "fr": "Facebook"
        }
      },
      {
        "type": "text",
        "id": "social_pinterest_link",
        "label": {
          "en": "Pinterest",
          "de": "Pinterest",
          "fr": "Pinterest"
        }
      },
      {
        "type": "text",
        "id": "social_instagram_link",
        "label": {
          "en": "Instagram",
          "de": "Instagram",
          "fr": "Instagram"
        }
      },
      {
        "type": "text",
        "id": "social_behance_link",
        "label": {
          "en": "Behance",
          "de": "Behance",
          "fr": "Behance"
        }
      },
      {
        "type": "text",
        "id": "social_tumblr_link",
        "label": {
          "en": "Tumblr",
          "de": "Tumblr",
          "fr": "Tumblr"
        }
      },
      {
        "type": "text",
        "id": "social_snapchat_link",
        "label": {
          "en": "Snapchat",
          "de": "Snapchat",
          "fr": "Snapchat"
        }
      },
      {
        "type": "text",
        "id": "social_youtube_link",
        "label": {
          "en": "YouTube",
          "de": "YouTube",
          "fr": "YouTube"
        }
      },
      {
        "type": "text",
        "id": "social_vimeo_link",
        "label": {
          "en": "Vimeo",
          "de": "Vimeo",
          "fr": "Vimeo"
        }
      }
    ]
  },
  {
    "name": {
      "de": "Blog Setting",
      "en": "Blog Setting",
      "es": "Blog Setting",
      "fr": "Blog Setting",
      "it": "Blog Setting",
      "ja": "Blog Setting",
      "pt-BR": "Blog Setting"
    },
    "settings": [
      {
        "type": "header",
        "content": "Blog Sidebar"
      },
      {
        "type": "checkbox",
        "id": "blog-enabel-slidebar",
        "label": "Enabel Slidebar?",
        "default": true
      },
      {
        "type": "select",
        "id": "blog-layout",
        "label": {
          "de": "Slidebar",
          "en": "Slidebar"
        },
        "default": "left",
        "options": [
          {
            "value": "left",
            "label": {
              "de": "Left",
              "en": "Left"
            }
          },
          {
            "value": "right",
            "label": {
              "de": "Right",
              "en": "Right"
            }
          }
        ]
      },
      {
        "type": "checkbox",
        "id": "blog-sidebar_baner_enable",
        "label": "Enable Sidebar Baner?",
        "default": true
      },
      {
        "type": "text",
        "id": "blog-sidebar_baner_link",
        "label": "Sidebar Baner Link"
      },
      {
        "type": "image_picker",
        "id": "blog-sidebar_baner_image",
        "label": "Sidebar Baner Image"
      },
      {
        "type": "header",
        "content": "Blog pages show"
      },
      {
        "type": "text",
        "id": "blog-postblog",
        "label": "Blog pages show at most",
        "default": "4"
      },
      {
        "type": "select",
        "id": "blog-column",
        "label": "Column",
        "default": "2",
        "options": [
          {
            "value": "1",
            "label": "1"
          },
          {
            "value": "2",
            "label": "2"
          },
          {
            "value": "3",
            "label": "3"
          },
          {
            "value": "4",
            "label": "4"
          }
        ]
      },
      {
        "type": "checkbox",
        "id": "blog-blog_show_author",
        "label": "Show Author?",
        "default": true
      },
      {
        "type": "checkbox",
        "id": "blog-blog_show_date",
        "label": "Show Date?",
        "default": true
      }
    ]
  },
  {
    "name": {
      "de": "Page Banner",
      "en": "Page banner",
      "es": "Page banner",
      "fr": "Page banner",
      "it": "Page banner",
      "ja": "Page banner",
      "pt-BR": "Page banner"
    },
    "settings": [
      {
        "type": "checkbox",
        "id": "enabel_page_banner",
        "label": "Enabel page banner?",
        "default": true
      },
      {
        "type": "image_picker",
        "id": "page_baner_image",
        "label": "Page Baner Image"
      },
      {
        "type": "checkbox",
        "id": "show_collection_image",
        "label": "Show collection image",
        "default": true
      },
      {
        "type": "checkbox",
        "id": "bg_white",
        "label": "Set white banner on collection page",
        "default": true
      },
      {
        "type": "select",
        "id": "background_size",
        "label": {
          "de": "Background size",
          "en": "Background size"
        },
        "default": "cover",
        "options": [
          {
            "value": "inherit",
            "label": {
              "de": "Inherit",
              "en": "Inherit"
            }
          },
          {
            "value": "cover",
            "label": {
              "de": "Cover",
              "en": "Cover"
            }
          },
          {
            "value": "contain",
            "label": {
              "de": "Contain",
              "en": "Contain"
            }
          }
        ]
      },
      {
        "type": "select",
        "id": "background_position",
        "label": {
          "de": "Background position",
          "en": "Background position"
        },
        "default": "center center",
        "options": [
          {
            "value": "left top",
            "label": {
              "de": "Left top",
              "en": "Left top"
            }
          },
          {
            "value": "left center",
            "label": {
              "de": "Left center",
              "en": "Left center"
            }
          },
          {
            "value": "left bottom",
            "label": {
              "de": "Left bottom",
              "en": "Left bottom"
            }
          },
          {
            "value": "center top",
            "label": {
              "de": "Center top",
              "en": "Center top"
            }
          },
          {
            "value": "center center",
            "label": {
              "de": "Center center",
              "en": "Center center"
            }
          },
          {
            "value": "center bottom",
            "label": {
              "de": "Center bottom",
              "en": "Center bottom"
            }
          },
          {
            "value": "right top",
            "label": {
              "de": "Right top",
              "en": "Right top"
            }
          },
          {
            "value": "right center",
            "label": {
              "de": "Right center",
              "en": "Right center"
            }
          },
          {
            "value": "right bottom",
            "label": {
              "de": "Right bottom",
              "en": "Right bottom"
            }
          }
        ]
      },
      {
        "type": "text",
        "id": "banner_height",
        "label": "Page banner height (px)",
        "placeholder": "0px",
        "default": "750px"
      },
      {
        "type": "text",
        "id": "mobile_banner_height",
        "label": "Mobile page banner height (px)",
        "placeholder": "0px",
        "default": "500px"
      },
      {
        "type": "text",
        "id": "page_banner_margin_bottom",
        "label": "Margin bottom (px)",
        "placeholder": "0px",
        "default": "120px"
      }
    ]
  },
  {
    "name": {
      "en": "BlueskyTechCo Collections Page",
      "de": "BlueskyTechCo Payment Media",
      "fr": "BlueskyTechCo Payment sociaux"
    },
    "settings": [
      {
        "type": "header",
        "content": "Product Page"
      },
      {
        "type": "checkbox",
        "id": "show_slidebar",
        "label": "Enable Slidebar",
        "default": true
      },
      {
        "type": "select",
        "id": "layout_slidebar",
        "label": "Location Slidebar",
        "default": "left",
        "options": [
          {
            "value": "left",
            "label": {
              "en": "Left"
            }
          },
          {
            "value": "right",
            "label": {
              "en": "Right"
            }
          }
        ]
      }
    ]
  },
  {
    "name": {
      "en": "BlueskyTechCo Product",
      "de": "BlueskyTechCo Product",
      "fr": "BlueskyTechCo Product"
    },
    "settings": [
      {
        "type": "header",
        "content": "Product"
      },
      {
        "type": "checkbox",
        "id": "show_label_sale",
        "label": "Enable label sale",
        "default": true
      },
      {
        "type": "checkbox",
        "id": "show_label_new",
        "label": "Enable label new",
        "default": true
      },
      {
        "type": "checkbox",
        "id": "show_swatchs_image",
        "label": "Enable swatch image",
        "default": true
      },
      {
        "type": "checkbox",
        "id": "show_countdown_product",
        "label": "Enable countdown product",
        "default": true
      },
      {
        "type": "checkbox",
        "id": "show_secondary_product_image",
        "label": "Enable secondary product image",
        "default": true
      }
    ]
  },
  {
    "name": {
      "en": "BlueskyTechCo Product Page",
      "de": "BlueskyTechCo Product Page",
      "fr": "BlueskyTechCo Product Page"
    },
    "settings": [
      {
        "type": "header",
        "content": "Product Page"
      },
      {
        "type": "checkbox",
        "id": "show_swatch",
        "label": "Enable swatch",
        "default": true
      },
      {
        "type": "select",
        "id": "swatch_style",
        "label": "Style Swatch Color",
        "default": "bg-color",
        "options": [
          {
            "value": "bg-color",
            "label": {
              "en": "Background Color"
            }
          },
          {
            "value": "bg-image",
            "label": {
              "en": "Background Image"
            }
          }
        ]
      },
      {
        "type": "text",
        "id": "single_product_image",
        "label": "Size product image",
        "info": "Width x Height ( 755x895 )",
        "default": "755x895"
      },
      {
        "type": "header",
        "content": "Thumbnail Slide Image"
      },
      {
        "type": "select",
        "id": "layout_slide_pro",
        "label": "Thumbnail Slide Direction",
        "default": "left",
        "options": [
          {
            "value": "left",
            "label": {
              "en": "Left"
            }
          },
          {
            "value": "right",
            "label": {
              "en": "Right"
            }
          },
          {
            "value": "bottom",
            "label": {
              "en": "Bottom"
            }
          }
        ]
      },
      {
        "type": "text",
        "id": "show_slide_pro",
        "label": "Show Number Image",
        "default": "7"
      },
      {
        "type": "text",
        "id": "width_hieght_slide_pro",
        "label": "Thumbnails size",
        "info": "Width x Height ( 100x118 )",
        "default": "100x118"
      }
    ]
  },
  {
    "name": {
      "en": "BlueskyTechCo Fake Order"
    },
    "settings": [
      {
        "type": "header",
        "content": "Fake Order"
      },
      {
        "type": "checkbox",
        "id": "show_fake_order",
        "label": "Enable Fake Order",
        "default": true
      },
      {
        "type": "collection",
        "id": "collection_fake_order",
        "label": "Select Collection"
      },
      {
        "type": "text",
        "id": "show_number_seconds",
        "label": "Seconds Displayed",
        "info": "You fill in the number;",
        "default": "6"
      },
      {
        "type": "text",
        "id": "show_text_message",
        "label": "Message",
        "default": "Someone purcharse a"
      }
    ]
  },
  {
    "name": {
      "en": "Footer"
    },
    "settings": [
      {
        "type": "header",
        "content": "Footer"
      },
      {
        "type": "select",
        "id": "select_footer",
        "label": "Select Footer Layout",
        "options": [
          {
            "value": "bluesky-footer-layout1",
            "label": "Footer Layout 1"
          },
          {
            "value": "bluesky-footer-layout2",
            "label": "Footer Layout 2"
          },
          {
            "value": "bluesky-footer-layout3",
            "label": "Footer Layout 3"
          },
          {
            "value": "bluesky-footer-layout4",
            "label": "Footer Layout 4"
          }
        ],
        "default": "bluesky-footer-layout1"
      },
      {
        "type": "header",
        "content": "Footer Setting"
      },
      {
        "type": "color",
        "id": "footer-title-color",
        "label": "Title Color",
        "default": "#fff"
      },
      {
        "type": "color",
        "id": "footer-text-color",
        "label": "Text Color",
        "default": "#d8d6d6"
      },
      {
        "type": "color",
        "id": "footer-icon-color",
        "label": "Icon Color",
        "default": "#d8d6d6"
      },
      {
        "type": "color",
        "id": "footer-border-color",
        "label": "Border Color",
        "default": "#343434"
      },
      {
        "type": "image_picker",
        "id": "logo",
        "label": "Logo Image Footer"
      },
      {
        "type": "image_picker",
        "id": "img_bg_style",
        "label": "Background Image"
      },
      {
        "type": "color",
        "id": "color_bg_style",
        "label": "Background Color",
        "default": "#fafafa"
      },
      {
        "type": "text",
        "id": "padding_center_style",
        "label": "Padding",
        "default": "145px 0"
      },
      {
        "type": "header",
        "content": "About Us"
      },
      {
        "type": "checkbox",
        "id": "aboutus_enable_style",
        "label": "Enable About Us",
        "default": true
      },
      {
        "type": "text",
        "id": "aboutus_title_style",
        "label": "Title"
      },
      {
        "type": "textarea",
        "id": "aboutus_description_style",
        "label": "Description",
        "default": "<div class='footer-phone-info mode-03'><i class='biolife-icon icon-head-phone'><\/i><div class='r-info'><h6>Got Questions ?<\/h6><span class='number'>(700)&nbsp; 9001-1909  (900) 689 -66<\/span><\/div><\/div><div class='contact-info-block footer-layout simple-info'><h6 class='title'>Contact info<\/h6><div class='info-item'><i class='biolife-icon icon-location2'><\/i><p class='desc'>7563 St. Vicent Place, Glasgow, Greater Newyork NH7689, UK <\/p><\/div><\/div>"
      },
      {
        "type": "checkbox",
        "id": "social_enable_style",
        "label": "Enable Social",
        "default": true
      },
      {
        "type": "header",
        "content": "Widget Menu 1"
      },
      {
        "type": "text",
        "id": "widget_menu1_title_style1",
        "label": "Widget Menu",
        "default": "My Account"
      },
      {
        "type": "link_list",
        "id": "widget_menu1_style1",
        "label": {
          "en": "Widget Menu",
          "de": "Widget Menü",
          "fr": "Widget Menu"
        },
        "default": "main-menu"
      },
      {
        "type": "header",
        "content": "Widget Menu 2"
      },
      {
        "type": "text",
        "id": "widget_menu2_title_style1",
        "label": "Widget Menu",
        "default": "Why Buy From Us"
      },
      {
        "type": "link_list",
        "id": "widget_menu2_style1",
        "label": {
          "en": "Widget Menu",
          "de": "Widget Menü",
          "fr": "Widget Menu"
        },
        "default": "main-menu"
      },
      {
        "type": "header",
        "content": "Widget Menu 3"
      },
      {
        "type": "text",
        "id": "widget_menu3_title_style1",
        "label": "Widget Menu",
        "default": "Information"
      },
      {
        "type": "link_list",
        "id": "widget_menu3_style1",
        "label": {
          "en": "Widget Menu",
          "de": "Widget Menü",
          "fr": "Widget Menu"
        },
        "default": "main-menu"
      },
      {
        "type": "header",
        "content": "Transport Offices"
      },
      {
        "type": "text",
        "id": "store_title",
        "label": "Title",
        "default": "Transport Offices"
      },
      {
        "type": "text",
        "id": "store_address",
        "label": "Address",
        "default": "<i class='biolife-icon icon-location'><\/i> 7563 St. Vicent Place, Glasgow, Greater Newyork NH7689, UK "
      },
      {
        "type": "text",
        "id": "store_phone",
        "label": "Phone",
        "default": "<i class='biolife-icon icon-phone'><\/i> Phone: (+067) 234 789  (+068) 222 888"
      },
      {
        "type": "text",
        "id": "store_email",
        "label": "Email",
        "default": "<i class='biolife-icon icon-letter'><\/i> Email:  contact@company.com"
      },
      {
        "type": "text",
        "id": "store_time",
        "label": "Time open",
        "default": "<i class='biolife-icon icon-clock'><\/i> Hours: 7 Days a week from 10:00 am"
      },
      {
        "type": "header",
        "content": "Footer newsletter"
      },
      {
        "type": "checkbox",
        "id": "newsletter_enable_style",
        "label": "Enable newsletter",
        "default": true
      },
      {
        "type": "text",
        "id": "newsletter_title_style",
        "label": "Title",
        "default": "Newsletter Signup"
      },
      {
        "type": "richtext",
        "id": "newsletter_subheading_style",
        "label": "Subheading",
        "default": "<p>Sign up our Newsletter for Exclusive Discount codes.<\/p>"
      },
      {
        "type": "header",
        "content": "Footer Bottom"
      },
      {
        "type": "link_list",
        "id": "widget_menu4_style1",
        "label": {
          "en": "Footer hozital menu",
          "de": "Footer hozital menu",
          "fr": "Footer hozital menu"
        },
        "default": "main-menu"
      },
      {
        "type": "text",
        "id": "static_text",
        "label": "Static text",
        "default": "All stock photos used on this Srorefy demos site are only for demo purposes and not included in the template package."
      },
      {
        "type": "header",
        "content": "CopyRight"
      },
      {
        "type": "checkbox",
        "id": "copyright_enable_style",
        "label": "Enable copyright",
        "default": true
      },
      {
        "type": "color",
        "id": "copyright_color",
        "label": "Text Color",
        "default": "#222"
      },
      {
        "type": "color",
        "id": "color_bg_copyright_style",
        "label": "Background Color",
        "default": "#fff"
      },
      {
        "type": "text",
        "id": "padding_copyright_style",
        "label": "Padding",
        "default": "40px 0"
      },
      {
        "type": "richtext",
        "id": "texts_copyright_style",
        "label": "Text",
        "default": "<p>Copyright © 2019 BlueskyTechco Company. All rights reserved<\/p>"
      },
      {
        "type": "header",
        "content": "Payment Footer"
      },
      {
        "type": "checkbox",
        "id": "payment_enable_style",
        "label": "Display payment image",
        "default": true
      },
      {
        "type": "text",
        "id": "payment_title",
        "label": "Payment title",
        "default": "Payments System:"
      },
      {
        "type": "image_picker",
        "id": "img_payment_style",
        "label": "Payment Image "
      }
    ]
  }
]